Note that the `echo = FALSE` parameter was added to the code chunk to
prevent printing of the R code that generated the plot.

\#1a

    ## `summarise()` has grouped output by 'hour_of_day', 'day_of_week'. You can override using the `.groups` argument.

    ## # A tibble: 336 × 4
    ## # Groups:   hour_of_day, day_of_week [112]
    ##    hour_of_day day_of_week month avg_pass
    ##          <int> <fct>       <chr>    <dbl>
    ##  1           6 Sun         Nov       2.19
    ##  2           6 Sun         Oct       1.5 
    ##  3           6 Sun         Sep       1.9 
    ##  4           6 Mon         Nov       4.38
    ##  5           6 Mon         Oct       5.15
    ##  6           6 Mon         Sep       4.19
    ##  7           6 Tue         Nov       5.44
    ##  8           6 Tue         Oct       6.1 
    ##  9           6 Tue         Sep       5.75
    ## 10           6 Wed         Nov       4.81
    ## # … with 326 more rows
…
